<?xml version="1.0" encoding="UTF-8" standalone="no"?>
<svg
   xmlns:dc="http://purl.org/dc/elements/1.1/"
   xmlns:cc="http://creativecommons.org/ns#"
   xmlns:rdf="http://www.w3.org/1999/02/22-rdf-syntax-ns#"
   xmlns:svg="http://www.w3.org/2000/svg"
   xmlns="http://www.w3.org/2000/svg"
   xmlns:sodipodi="http://sodipodi.sourceforge.net/DTD/sodipodi-0.dtd"
   xmlns:inkscape="http://www.inkscape.org/namespaces/inkscape"
   width="16.0px"
   height="16.0px"
   viewBox="0 0 16.0 16.0"
   version="1.1"
   id="SVGRoot"
   sodipodi:docname="Scriptable.svg"
   inkscape:version="1.0.1 (3bc2e813f5, 2020-09-07)">
  <defs
     id="defs841" />
  <sodipodi:namedview
     id="base"
     pagecolor="#ffffff"
     bordercolor="#666666"
     borderopacity="1.0"
     inkscape:pageopacity="0.0"
     inkscape:pageshadow="2"
     inkscape:zoom="43.3125"
     inkscape:cx="8"
     inkscape:cy="7.2283854"
     inkscape:document-units="px"
     inkscape:current-layer="layer1"
     inkscape:document-rotation="0"
     showgrid="true"
     inkscape:window-width="900"
     inkscape:window-height="1030"
     inkscape:window-x="1004"
     inkscape:window-y="12"
     inkscape:window-maximized="1">
    <inkscape:grid
       type="xygrid"
       id="grid850" />
  </sodipodi:namedview>
  <metadata
     id="metadata844">
    <rdf:RDF>
      <cc:Work
         rdf:about="">
        <dc:format>image/svg+xml</dc:format>
        <dc:type
           rdf:resource="http://purl.org/dc/dcmitype/StillImage" />
        <dc:title></dc:title>
      </cc:Work>
    </rdf:RDF>
  </metadata>
  <g
     inkscape:label="Layer 1"
     inkscape:groupmode="layer"
     id="layer1">
    <rect
       style="display:inline;fill:#c8b4a2;fill-opacity:1;stroke:#000000;stroke-width:0;stroke-miterlimit:4;stroke-dasharray:none;stroke-opacity:1"
       id="rect875-7-5-6"
       width="16"
       height="16"
       x="0"
       y="-4.7683716e-07"
       rx="2"
       ry="2" />
    <path
       id="rect2328-5"
       style="fill:#534354;fill-opacity:1;stroke:#000000;stroke-width:0;stop-color:#000000"
       d="M 4,2 C 3.446,2 3,2.446 3,3 V 6 C 3,6.554 2.554,7 2,7 v 2 c 0.554,0 1,0.446 1,1 v 3 c 0,0.554 0.446,1 1,1 H 5 7 V 13 H 6 C 5.446,13 5,12.554 5,12 V 4 C 5,3.446 5.446,3 6,3 H 7 V 2 H 5 Z m 5,0 v 1 h 1 c 0.554,0 1,0.446 1,1 v 8 c 0,0.554 -0.446,1 -1,1 H 9 v 1 h 2 0.999999 c 0.554001,0 1,-0.446 1,-1 v -3 c 0,-0.554 0.446,-1 1,-1 V 7 c -0.554,0 -1,-0.446 -1,-1 V 3 c 0,-0.554 -0.445999,-1 -1,-1 H 11 Z" />
    <path
       id="rect2328"
       style="fill:#71556a;fill-opacity:1;stroke:#000000;stroke-width:0;stop-color:#000000"
       d="M 2.6523438 6.7441406 C 2.4765663 6.8980526 2.2530666 7 2 7 L 2 9 C 2.554 9 3 9.446 3 10 L 3 12.142578 L 4.4179688 14 L 5 14 L 7 14 L 7 13 L 6 13 C 5.446 13 5 12.554 5 12 L 5 9.8183594 L 2.6523438 6.7441406 z " />
    <path
       id="rect1047"
       style="font-variation-settings:normal;display:inline;vector-effect:none;fill:#865e6f;fill-opacity:1;stroke:#000000;stroke-width:0;stroke-linecap:butt;stroke-linejoin:miter;stroke-miterlimit:4;stroke-dasharray:none;stroke-dashoffset:0;stroke-opacity:1;stop-color:#000000"
       d="M 3 12.142578 L 3 13 C 3 13.554 3.446 14 4 14 L 4.4179688 14 L 3 12.142578 z " />
  </g>
</svg>
