<?xml version="1.0" encoding="UTF-8" standalone="no"?>
<svg
   xmlns:dc="http://purl.org/dc/elements/1.1/"
   xmlns:cc="http://creativecommons.org/ns#"
   xmlns:rdf="http://www.w3.org/1999/02/22-rdf-syntax-ns#"
   xmlns:svg="http://www.w3.org/2000/svg"
   xmlns="http://www.w3.org/2000/svg"
   xmlns:sodipodi="http://sodipodi.sourceforge.net/DTD/sodipodi-0.dtd"
   xmlns:inkscape="http://www.inkscape.org/namespaces/inkscape"
   width="16.0px"
   height="16.0px"
   viewBox="0 0 16.0 16.0"
   version="1.1"
   id="SVGRoot"
   sodipodi:docname="Trello.svg"
   inkscape:version="1.0.1 (3bc2e813f5, 2020-09-07)">
  <defs
     id="defs1605" />
  <sodipodi:namedview
     id="base"
     pagecolor="#ffffff"
     bordercolor="#666666"
     borderopacity="1.0"
     inkscape:pageopacity="0.0"
     inkscape:pageshadow="2"
     inkscape:zoom="43.5"
     inkscape:cx="8"
     inkscape:cy="8.0113261"
     inkscape:document-units="px"
     inkscape:current-layer="layer1"
     inkscape:document-rotation="0"
     showgrid="true"
     inkscape:window-width="903"
     inkscape:window-height="1030"
     inkscape:window-x="1001"
     inkscape:window-y="12"
     inkscape:window-maximized="0">
    <inkscape:grid
       type="xygrid"
       id="grid1614" />
  </sodipodi:namedview>
  <metadata
     id="metadata1608">
    <rdf:RDF>
      <cc:Work
         rdf:about="">
        <dc:format>image/svg+xml</dc:format>
        <dc:type
           rdf:resource="http://purl.org/dc/dcmitype/StillImage" />
        <dc:title></dc:title>
      </cc:Work>
    </rdf:RDF>
  </metadata>
  <g
     inkscape:label="Layer 1"
     inkscape:groupmode="layer"
     id="layer1">
    <path
       id="rect875-7-5-6"
       style="display:inline;fill:#c8b4a2;fill-opacity:1;stroke:#000000;stroke-width:0;stroke-miterlimit:4;stroke-dasharray:none;stroke-opacity:1"
       d="m 2,-1e-6 h 12 c 1.108,0 2,0.892 2,2 V 14 c 0,1.108 -0.892,2 -2,2 H 2 C 0.892,16 0,15.108 0,14 V 1.999999 c 0,-1.108 0.892,-2 2,-2 z" />
    <rect
       style="fill:#534354;stroke:#000000;stroke-width:0;stop-color:#000000"
       id="rect1640-6"
       width="5"
       height="12"
       x="2"
       y="1.9999995"
       ry="1" />
    <path
       id="rect1640"
       style="fill:#71556a;stroke:#000000;stroke-width:0;stop-color:#000000;fill-opacity:1"
       d="M 2 5.8886719 L 2 10.832031 L 4.4179688 14 L 6 14 C 6.554 14 7 13.554 7 13 L 7 12.4375 L 2 5.8886719 z " />
    <rect
       style="fill:#534354;stroke:#000000;stroke-width:0;stop-color:#000000"
       id="rect1642"
       width="5"
       height="7"
       x="9"
       y="2"
       ry="1" />
    <path
       id="rect1047"
       style="font-variation-settings:normal;display:inline;vector-effect:none;fill:#865e6f;fill-opacity:1;stroke:#000000;stroke-width:0;stroke-linecap:butt;stroke-linejoin:miter;stroke-miterlimit:4;stroke-dasharray:none;stroke-dashoffset:0;stroke-opacity:1;stop-color:#000000"
       d="M 2 10.832031 L 2 13 C 2 13.554 2.446 14 3 14 L 4.4179688 14 L 2 10.832031 z " />
  </g>
</svg>
